R para Ciência de Dados
…
  samples wt_mean wt_min wt_max     wt_sd wt_median
1      32 3.21725  1.513  5.424 0.9784574     3.325

group_by

mtcars |> group_by(am, vs)

# A tibble: 32 × 11
# Groups:   am, vs [4]
     mpg   cyl  disp    hp  drat    wt  qsec    vs    am  gear  carb
   <dbl> <dbl> <dbl> <dbl> <dbl> <dbl> <dbl> <dbl> <dbl> <dbl> <dbl>
 1  21       6  160    110  3.9   2.62  16.5     0     1     4     4
 2  21       6  160    110  3.9   2.88  17.0     0     1     4     4
 3  22.8     4  108     93  3.85  2.32  18.6     1     1     4     1
 4  21.4     6  258    110  3.08  3.22  19.4     1     0     3     1
 5  18.7     8  360    175  3.15  3.44  17.0     0     0     3     2
 6  18.1     6  225    105  2.76  3.46  20.2     1     0     3     1
 7  14.3     8  360    245  3.21  3.57  15.8     0     0     3     4
 8  24.4     4  147.    62  3.69  3.19  20       1     0     4     2
 9  22.8     4  141.    95  3.92  3.15  22.9     1     0     4     2
10  19.2     6  168.   123  3.92  3.44  18.3     1     0     4     4
# ℹ 22 more rows
…
# A tibble: 4 × 8
     am    vs samples wt_mean wt_min wt_max wt_sd wt_median
  <dbl> <dbl>   <int>   <dbl>  <dbl>  <dbl> <dbl>     <dbl>
1     0     0      12    4.10   3.44   5.42 0.768      3.81
2     0     1       7    3.19   2.46   3.46 0.348      3.22
3     1     0       6    2.86   2.14   3.57 0.487      2.82
4     1     1       7    2.03   1.51   2.78 0.440      1.94

group_by + mutate

mtcars |>
  group_by(am) |>
  mutate(wt = (wt - mean(wt))/sd(wt))

# A tibble: 32 × 11
# Groups:   am [2]
     mpg   cyl  disp    hp  drat     wt  qsec    vs    am  gear  carb
   <dbl> <dbl> <dbl> <dbl> <dbl>  <dbl> <dbl> <dbl> <dbl> <dbl> <dbl>
 1  21       6  160    110  3.9   0.339  16.5     0     1     4     4
 2  21       6  160    110  3.9   0.752  17.0     0     1     4     4
 3  22.8     4  108     93  3.85 -0.147  18.6     1     1     4     1
 4  21.4     6  258    110  3.08 -0.712  19.4     1     0     3     1
 5  18.7     8  360    175  3.15 -0.423  17.0     0     0     3     2
 6  18.1     6  225    105  2.76 -0.397  20.2     1     0     3     1
 7  14.3     8  360    245  3.21 -0.256  15.8     0     0     3     4
 8  24.4     4  147.    62  3.69 -0.745  20       1     0     4     2
 9  22.8     4  141.    95  3.92 -0.796  22.9     1     0     4     2
10  19.2     6  168.   123  3.92 -0.423  18.3     1     0     4     4
# ℹ 22 more rows
…
